[
  {{- range $index, $page := (where .Site.RegularPages "Title" "!=" "À propos" ) -}}
    {{- if gt $index 0 -}} , {{- end -}}
    {{- $entry := dict "uri" $page.RelPermalink "title" $page.Title -}}
    {{- $entry = merge $entry (dict "content" ($page.Plain | htmlUnescape)) -}}
    {{- $entry = merge $entry (dict "tags" $page.Params.tags) -}}
    {{- $entry | jsonify -}}
  {{- end -}}
  {{- with .Site.GetPage "/en-vrac" -}}
  ,
    {{- $entry := dict "uri" .RelPermalink "title" .Title -}}
    {{- $entry = merge $entry (dict "content" (.Plain | htmlUnescape)) -}}
    {{- $entry = merge $entry (dict "tags" .Params.tags) -}}
    {{- $entry | jsonify -}}
  {{- end -}}
]
